[
  {
    "line": 2,
    "elements": [
      {
        "comments": [
          {
            "line": 3,
            "value": "#Adding a new project"
          }
        ],
        "line": 6,
        "name": "Verify user is able to add a new project",
        "description": "",
        "id": "paramount;verify-user-is-able-to-add-a-new-project",
        "type": "scenario",
        "keyword": "Scenario",
        "steps": [
          {
            "result": {
              "status": "undefined"
            },
            "line": 7,
            "name": "I navigate to LoginPage",
            "match": {},
            "keyword": "Given "
          },
          {
            "result": {
              "status": "undefined"
            },
            "line": 8,
            "name": "I enter Email and Password",
            "match": {},
            "keyword": "When "
          },
          {
            "result": {
              "status": "undefined"
            },
            "line": 9,
            "name": "I click on Login button",
            "match": {},
            "keyword": "Then "
          },
          {
            "result": {
              "status": "undefined"
            },
            "line": 10,
            "name": "I am on paramount dashboard",
            "match": {},
            "keyword": "And "
          },
          {
            "result": {
              "status": "undefined"
            },
            "line": 11,
            "name": "I click on ADD PROJECT",
            "match": {},
            "keyword": "Then "
          }
        ],
        "tags": [
          {
            "line": 5,
            "name": "@Paramount"
          }
        ]
      }
    ],
    "name": "Paramount",
    "description": "",
    "id": "paramount",
    "keyword": "Feature",
    "uri": "Paramount.feature",
    "tags": [
      {
        "line": 1,
        "name": "@run"
      }
    ]
  }
]